<?xml version="1.0"?>
<svg xmlns="http://www.w3.org/2000/svg" id="Layer_1" data-name="Layer 1" viewBox="0 0 512 512" width="512" height="512"><title>Customer service
</title><path d="M360.66,380.14l.51.22a76.96,76.96,0,0,1-68.07-.15l.16-.07V346.96a75.745,75.745,0,0,0,67.4.14Z" style="fill:#edb288"/><path d="M293.26,346.96a75.68,75.68,0,0,1-41.77-67.62v-.12a19.276,19.276,0,0,1-15.35-23.55,14.487,14.487,0,0,1,12.96-11.03l.09-.02a6.205,6.205,0,0,0,3.22,4.11l9.06,4.65a1.545,1.545,0,0,0,2.25-1.25l2.04-33.52a231.138,231.138,0,0,0,27.1-.69c42.47,37.85,105.13,36.71,109.12,36.6l.07,2.54v36.97c-3.06,15.03-11.16,28.45-21.58,38.85l-.18.02a10.984,10.984,0,0,0-10.91-9.62h-37.6a11,11,0,0,0,0,22h32.31c-1.12.64-2.27,1.25-3.43,1.82a75.745,75.745,0,0,1-67.4-.14Z" style="fill:#f7caa5"/><path d="M380.38,334.28a10.994,10.994,0,0,1-11,11h-37.6a11,11,0,0,1,0-22h37.6a10.984,10.984,0,0,1,10.91,9.62A10.432,10.432,0,0,1,380.38,334.28Z" style="fill:#e2d574"/><path d="M434.01,271.81v19.67a14.758,14.758,0,0,1-14.75,14.75H402.05V257.06h17.21A14.758,14.758,0,0,1,434.01,271.81Z" style="fill:#e2d574"/><path d="M402.18,241.81v12.7s-.07,0-.2.01c-3.99.11-66.65,1.25-109.12-36.6a226.39,226.39,0,0,0,41.13-6.9S355.58,238.81,402.18,241.81Z" style="fill:#e48e66"/><path d="M333.99,211.02a226.39,226.39,0,0,1-41.13,6.9,231.138,231.138,0,0,1-27.1.69l-2.04,33.52a1.545,1.545,0,0,1-2.25,1.25l-9.06-4.65a6.205,6.205,0,0,1-3.22-4.11,4.931,4.931,0,0,1-.16-1.02V215.39a76.575,76.575,0,0,1,153.15,0v26.42C355.58,238.81,333.99,211.02,333.99,211.02Z" style="fill:#cc7350"/><path d="M429.92,432.96V491.5H224V432.96a40.307,40.307,0,0,1,22.15-32.71l46.95-20.04a76.96,76.96,0,0,0,68.07.15l46.61,19.89A40.3,40.3,0,0,1,429.92,432.96Z" style="fill:#6fe3ff"/><path d="M308,80.5v60.35a76.64,76.64,0,0,0-58.97,74.54V243.6a4.931,4.931,0,0,0,.16,1.02l-.09.02a14.487,14.487,0,0,0-12.96,11.03,19.276,19.276,0,0,0,15.35,23.55v.12a75.68,75.68,0,0,0,41.77,67.62V378.5H68V80.5H308Z" style="fill:#f8ec7d"/><path d="M308,60.5v20H68v-20a40,40,0,0,1,40-40H268A40,40,0,0,1,308,60.5Z" style="fill:#e48e66"/><path d="M293.1,380.21l-46.95,20.04A40.307,40.307,0,0,0,224,432.96V450.5H108a40,40,0,0,1-40-40v-32H293.26v1.64ZM203,414.5a15,15,0,1,0-15,15A15.005,15.005,0,0,0,203,414.5Z" style="fill:#e48e66"/><circle cx="188" cy="414.5" r="15" style="fill:#f8ec7d"/><path d="M444,275.34h-3.99v-3.53a20.778,20.778,0,0,0-16.27-20.25v-9.41a21.585,21.585,0,0,0-15.56-20.693V215.39A82.618,82.618,0,0,0,314,133.633V60.5a46.053,46.053,0,0,0-46-46H108a46.052,46.052,0,0,0-46,46v350a46.052,46.052,0,0,0,46,46H218v35a6,6,0,0,0,6,6H429.92a6,6,0,0,0,6-6V432.96q0-.247-.021-.5a46.555,46.555,0,0,0-25.436-37.581c-.108-.055-.217-.106-.328-.153L366.66,376.18v-24.9h2.72a16.948,16.948,0,0,0,15.895-11h8.815a23.817,23.817,0,0,0,23.79-23.79v-4.26h1.38a20.774,20.774,0,0,0,20.75-20.75v-4.14H444a6,6,0,0,0,0-12Zm-32.26-33.19v8.91h-3.56V234.718A9.54,9.54,0,0,1,411.74,242.15Zm-30.027,80.433a16.988,16.988,0,0,0-12.333-5.3h-37.6a16.985,16.985,0,0,0-8.749,31.546,68.618,68.618,0,0,1-27.085-7.231A69.679,69.679,0,0,1,257.49,279.34v-.12a6,6,0,0,0-4.966-5.91A13.277,13.277,0,0,1,241.968,257.1a8.174,8.174,0,0,1,4.377-5.539,12.207,12.207,0,0,0,3.326,2.511l9.03,4.635a7.546,7.546,0,0,0,11-6.082c0-.043.007-.085.009-.127l1.689-27.757c4.481.034,11.228-.078,19.407-.648,22.825,19.5,50.428,28.612,72.519,32.848a6,6,0,0,0-4.654,5.843v12.77a6,6,0,0,0,12,0V262.78a5.989,5.989,0,0,0-2.7-5,200.425,200.425,0,0,0,28.076,2.734V293.37A69.03,69.03,0,0,1,381.713,322.583ZM299.26,356.076a82.111,82.111,0,0,0,55.4.1v20.546a71.491,71.491,0,0,1-55.4-.276Zm32.668-138.343c7,7.342,27.787,25.609,64.252,29.565v1.185c-14.734-.428-55.137-3.733-87.972-26.178A219.421,219.421,0,0,0,331.928,217.733Zm64.252-2.343v19.825c-25.567-3.107-42.335-14.149-50.831-21.378,13.533-4.568,25.1-10.5,34.472-17.686a6,6,0,0,0-7.3-9.523c-10.311,7.906-23.793,14.162-40.077,18.594l-.008,0-.022.006a217.878,217.878,0,0,1-40.016,6.708h-.019a228.128,228.128,0,0,1-26.311.679,6.011,6.011,0,0,0-6.295,5.628l-1.624,26.685-3-1.539a.212.212,0,0,1-.114-.134l0-.015V215.39a70.64,70.64,0,0,1,54.345-68.7,70.657,70.657,0,0,1,86.805,68.7ZM108,26.5H268a34.038,34.038,0,0,1,34,34v14H288a6,6,0,0,0,0,12h14v49.754a82.622,82.622,0,0,0-58.97,79.136v24.537a20.263,20.263,0,0,0-12.719,14.324,25.29,25.29,0,0,0,15.3,29.525A81.645,81.645,0,0,0,287.26,350.56V372.5H74V86.5H237a6,6,0,0,0,0-12H74v-14A34.038,34.038,0,0,1,108,26.5Zm0,418a34.038,34.038,0,0,1-34-34v-26H267.765l-23.971,10.231c-.11.047-.218.1-.326.152a46.579,46.579,0,0,0-25.447,37.578c-.014.166-.021.332-.021.5V444.5Zm315.92-11.282V485.5H230V433.22a34.518,34.518,0,0,1,18.678-27.526l44.3-18.908a83.509,83.509,0,0,0,68.3.141l43.973,18.767A34.494,34.494,0,0,1,423.92,433.218Zm-51-95.4a4.966,4.966,0,0,1-3.537,1.463h-37.6a5,5,0,0,1,0-10h37.6a5,5,0,0,1,4.963,4.415,4.361,4.361,0,0,1,.037.585A5,5,0,0,1,372.917,337.817ZM405.88,316.49a11.8,11.8,0,0,1-11.79,11.79H392.5a84.309,84.309,0,0,0,9.808-16.05h3.572Zm22.13-25.01a8.76,8.76,0,0,1-8.75,8.75H408.05V263.06h11.21a8.76,8.76,0,0,1,8.75,8.75Z" style="fill:#63316d"/><path d="M292.86,256.78a6,6,0,0,0-6,6v12.77a6,6,0,1,0,12,0V262.78A6,6,0,0,0,292.86,256.78Z" style="fill:#63316d"/><path d="M256.69,86.5h11.12a6,6,0,0,0,0-12H256.69a6,6,0,0,0,0,12Z" style="fill:#63316d"/><path d="M188,393.5a21,21,0,1,0,21,21A21.024,21.024,0,0,0,188,393.5Zm0,30a9,9,0,1,1,9-9A9.01,9.01,0,0,1,188,423.5Z" style="fill:#63316d"/><path d="M100.92,276.5h31.23a6,6,0,0,0,0-12H100.92a6,6,0,0,0,0,12Z" style="fill:#63316d"/><path d="M180,270.5a6,6,0,0,0-6-6H155.44a6,6,0,0,0,0,12H174A6,6,0,0,0,180,270.5Z" style="fill:#63316d"/><path d="M217.08,276.5a6,6,0,1,0,0-12H199.7a6,6,0,0,0,0,12Z" style="fill:#63316d"/><path d="M112.15,298.5H100.92a6,6,0,0,0,0,12h11.23a6,6,0,0,0,0-12Z" style="fill:#63316d"/><path d="M135.44,298.5a6,6,0,0,0,0,12H164a6,6,0,0,0,0-12Z" style="fill:#63316d"/><path d="M181.08,304.5a6,6,0,0,0,6,6H229.7a6,6,0,1,0,0-12H187.08A6,6,0,0,0,181.08,304.5Z" style="fill:#63316d"/><path d="M100.92,208.5h51.23a6,6,0,0,0,0-12H100.92a6,6,0,0,0,0,12Z" style="fill:#63316d"/><path d="M228,196.5H175.44a6,6,0,0,0,0,12H228a6,6,0,0,0,0-12Z" style="fill:#63316d"/><path d="M100.92,242.5h31.23a6,6,0,0,0,0-12H100.92a6,6,0,0,0,0,12Z" style="fill:#63316d"/><path d="M224,230.5H155.44a6,6,0,0,0,0,12H224a6,6,0,0,0,0-12Z" style="fill:#63316d"/><path d="M112.15,328.5H100.92a6,6,0,0,0,0,12h11.23a6,6,0,0,0,0-12Z" style="fill:#63316d"/><path d="M194,328.5H135.44a6,6,0,0,0,0,12H194a6,6,0,0,0,0-12Z" style="fill:#63316d"/><path d="M229.7,328.5H217.08a6,6,0,0,0,0,12H229.7a6,6,0,1,0,0-12Z" style="fill:#63316d"/><path d="M100.92,178.5h81.23a6,6,0,0,0,0-12H100.92a6,6,0,0,0,0,12Z" style="fill:#63316d"/><path d="M228,166.5H205.44a6,6,0,0,0,0,12H228a6,6,0,0,0,0-12Z" style="fill:#63316d"/><path d="M100.92,148.5h31.23a6,6,0,0,0,0-12H100.92a6,6,0,0,0,0,12Z" style="fill:#63316d"/><path d="M155.44,148.5h55.88a6,6,0,0,0,0-12H155.44a6,6,0,0,0,0,12Z" style="fill:#63316d"/><path d="M258,136.5H235a6,6,0,0,0,0,12h23a6,6,0,0,0,0-12Z" style="fill:#63316d"/></svg>
