<?xml version="1.0" encoding="iso-8859-1"?>
<!-- Generator: Adobe Illustrator 21.0.0, SVG Export Plug-In . SVG Version: 6.00 Build 0)  -->
<svg xmlns="http://www.w3.org/2000/svg" xmlns:xlink="http://www.w3.org/1999/xlink" version="1.1" id="Capa_1" x="0px" y="0px" viewBox="0 0 511 511" style="enable-background:new 0 0 511 511;" xml:space="preserve" width="512" height="512">
<g>
	<g>
		<g>
			<path style="fill:#808A9D;" d="M359.5,503.5h-208c-17.673,0-32-14.327-32-32v-432c0-17.673,14.327-32,32-32h208     c17.673,0,32,14.327,32,32v432C391.5,489.173,377.173,503.5,359.5,503.5z"/>
			<path style="fill:#6B768D;" d="M151.5,471.5v-432c0-17.673,14.327-32,32-32h-32c-17.673,0-32,14.327-32,32v432     c0,17.673,14.327,32,32,32h32C165.827,503.5,151.5,489.173,151.5,471.5z"/>
			<rect x="119.5" y="63.5" style="fill:#EAEBEF;" width="272" height="376"/>
			<rect x="119.5" y="63.5" style="fill:#D5D8DE;" width="32" height="376"/>
		</g>
		<g>
			<g>
				<rect x="175.5" y="287.5" style="fill:#8CDC91;" width="32" height="96"/>
				<rect x="239.5" y="255.5" style="fill:#8CDC91;" width="32" height="128"/>
				<rect x="303.5" y="223.5" style="fill:#8CDC91;" width="32" height="160"/>
			</g>
			<g>
				<circle style="fill:#FB675F;" cx="223.5" cy="167.5" r="48"/>
				<path style="fill:#FA544B;" d="M247.5,199.5c-26.51,0-48-21.49-48-48c0-11.398,3.981-21.862,10.617-30.095      c-19.995,5.796-34.617,24.232-34.617,46.095c0,26.51,21.49,48,48,48c15.112,0,28.584-6.99,37.383-17.905      C256.634,198.827,252.146,199.5,247.5,199.5z"/>
			</g>
		</g>
	</g>
	<g>
		<path d="M359.5,0h-208C129.72,0,112,17.72,112,39.5v432c0,21.78,17.72,39.5,39.5,39.5h208c21.78,0,39.5-17.72,39.5-39.5V163.833    c0-4.142-3.357-7.5-7.5-7.5s-7.5,3.358-7.5,7.5V432H127V71h257v56.5c0,4.142,3.357,7.5,7.5,7.5s7.5-3.358,7.5-7.5v-88    C399,17.72,381.28,0,359.5,0z M384,447v24.5c0,13.509-10.99,24.5-24.5,24.5h-208c-13.51,0-24.5-10.991-24.5-24.5V447H384z M127,56    V39.5c0-13.509,10.99-24.5,24.5-24.5h208c13.51,0,24.5,10.991,24.5,24.5V56H127z"/>
		<path d="M263.5,32h-16c-4.143,0-7.5,3.358-7.5,7.5s3.357,7.5,7.5,7.5h16c4.143,0,7.5-3.358,7.5-7.5S267.643,32,263.5,32z"/>
		<path d="M303.5,32h-8c-4.143,0-7.5,3.358-7.5,7.5s3.357,7.5,7.5,7.5h8c4.143,0,7.5-3.358,7.5-7.5S307.643,32,303.5,32z"/>
		<path d="M215.5,32h-8c-4.143,0-7.5,3.358-7.5,7.5s3.357,7.5,7.5,7.5h8c4.143,0,7.5-3.358,7.5-7.5S219.643,32,215.5,32z"/>
		<path d="M239.5,479h32c4.143,0,7.5-3.358,7.5-7.5s-3.357-7.5-7.5-7.5h-32c-4.143,0-7.5,3.358-7.5,7.5S235.357,479,239.5,479z"/>
		<path d="M168,376h-8.5c-4.143,0-7.5,3.358-7.5,7.5s3.357,7.5,7.5,7.5h192c4.143,0,7.5-3.358,7.5-7.5s-3.357-7.5-7.5-7.5H343V223.5    c0-4.142-3.357-7.5-7.5-7.5h-32c-4.143,0-7.5,3.358-7.5,7.5V376h-17V255.5c0-4.142-3.357-7.5-7.5-7.5h-32    c-4.143,0-7.5,3.358-7.5,7.5V376h-17v-88.5c0-4.142-3.357-7.5-7.5-7.5h-32c-4.143,0-7.5,3.358-7.5,7.5V376z M311,231h17v145h-17    V231z M247,263h17v113h-17V263z M183,295h17v81h-17V295z"/>
		<path d="M223.5,223c30.603,0,55.5-24.897,55.5-55.5S254.103,112,223.5,112S168,136.897,168,167.5S192.897,223,223.5,223z     M223.5,127c22.332,0,40.5,18.168,40.5,40.5S245.832,208,223.5,208S183,189.832,183,167.5S201.168,127,223.5,127z"/>
		<path d="M202.196,188.803c2.89,2.889,7.717,2.889,10.607,0l10.696-10.696l10.696,10.696c2.89,2.889,7.717,2.889,10.607,0    c2.929-2.929,2.929-7.678,0-10.606L234.107,167.5l10.697-10.697c2.929-2.929,2.929-7.678,0-10.606    c-2.93-2.929-7.678-2.929-10.607,0L223.5,156.893l-10.696-10.696c-2.93-2.929-7.678-2.929-10.607,0    c-2.929,2.929-2.929,7.678,0,10.606l10.697,10.697l-10.697,10.697C199.268,181.125,199.268,185.875,202.196,188.803z"/>
	</g>
</g>















</svg>
